payload:
# 百度
  - '+.17swan.com'
  - '+.37swan.com'
  - '+.91.com'
  - '+.911dns.cn'
  - '+.911dns.com.cn'
  - '+.aicdn.work'
  - '+.aipage.com'
  - '+.aiqicha.cn'
  - '+.aiqicha.com'
  - '+.apollo-platform.com'
  - '+.apollo-share.com'
  - '+.apollo.auto'
  - '+.baeapps.com'
  - '+.baetyl.tech'
  - '+.baidu-1img.cn'
  - '+.baidu-2img.cn'
  - '+.baidu-3img.cn'
  - '+.baidu-bank.cn'
  - '+.baidu-bank.com'
  - '+.baidu-cdn.cn'
  - '+.baidu-cdn.com'
  - '+.baidu-cdn.net'
  - '+.baidu-img.cn'
  - '+.baidu-int.com'
  - '+.baidu-itm.com'
  - '+.baidu-tech.com'
  - '+.baidu.cn'
  - '+.baidu.com'
  - '+.baidu.com.cn'
  - '+.baidu.com.hk'
  - '+.baidu.hk'
  - '+.baidu.mobi'
  - '+.baiduads.com'
  - '+.baiduapp.com'
  - '+.baidubce.cn'
  - '+.baidubce.com'
  - '+.baidubce.com.cn'
  - '+.baidubce.net.cn'
  - '+.baidubcr.com'
  - '+.baidubos.com'
  - '+.baiducloudapi.com'
  - '+.baiducontent.com'
  - '+.baiduhui.com'
  - '+.baidupcs.cn'
  - '+.baidupcs.com'
  - '+.baidupcs.com.cn'
  - '+.baidupcs.net'
  - '+.baidupcs'
  - '+.baidustatic.com'
  - '+.baiduux.com'
  - '+.baiduwaf.com'
  - '+.baiduwebgame.com'
  - '+.baiduxiaodai.cn'
  - '+.baiduxiaodai.com'
  - '+.baiduyangguang.org'
  - '+.baiduyuncdn.cn'
  - '+.baiduyuncdn.com'
  - '+.baiduyuncdn.net'
  - '+.baiduyundns.cn'
  - '+.baiduyundns.com'
  - '+.baiduyundns.net'
  - '+.baiduyunwaf.com'
  - '+.baifae.com'
  - '+.baifubao.com'
  - '+.baihangbao.cn'
  - '+.baihangbao.com'
  - '+.baihangdai.cn'
  - '+.baihangdai.com'
  - '+.baijincdn.cn'
  - '+.baijincdn.com'
  - '+.bakshifen.com'
  - '+.bce-cdn.cn'
  - '+.bce-cdn.com'
  - '+.bce-cdn.net'
  - '+.bceapp.com'
  - '+.bcebos.com'
  - '+.bcedns.cn'
  - '+.bcedns.com'
  - '+.bcedns.net'
  - '+.bcedocument.com'
  - '+.bcehost.com'
  - '+.bcehosts.com'
  - '+.bceidaas.com'
  - '+.bceimg.cn'
  - '+.bceimg.com'
  - '+.bcelive.com'
  - '+.bcevod.com'
  - '+.bcewaf.com'
  - '+.bchdemo.site'
  - '+.bdbae.com'
  - '+.bdcloudapi.com'
  - '+.bddns.cn'
  - '+.bdeceimg.com'
  - '+.bdimg.com'
  - '+.bdstatic.cn'
  - '+.bdstatic.com'
  - '+.bdtjrcv.com'
  - '+.bduapp.com'
  - '+.bdurl.net'
  - '+.bdycdn.cn'
  - '+.bdycdn.com'
  - '+.bdycdn.net'
  - '+.bdydns.cn'
  - '+.bdydns.com'
  - '+.bdydns.net'
  - '+.bdymkt.com'
  - '+.bdysite.com'
  - '+.bdysites.com'
  - '+.bfe-networks.com'
  - '+.bfe-networks.net'
  - '+.chuanke.com'
  - '+.cloud-control.top'
  - '+.clouda.com'
  - '+.cloudajs.org'
  - '+.content4ads.com'
  - '+.daoru.in'
  - '+.data-schema.org.cn'
  - '+.dlnel.com'
  - '+.dlnel.org'
  - '+.dnsproxy.cn'
  - '+.dnsproxy.com.cn'
  - '+.du-xiaomai.com'
  - '+.duapp-preview.com'
  - '+.duapp.com'
  - '+.duapp.net'
  - '+.duapps.com'
  - '+.dulife.com'
  - '+.dulightapp.com'
  - '+.dumall.com'
  - '+.dusdn.cn'
  - '+.dusdn.com'
  - '+.dusdn.net'
  - '+.dushifen.com'
  - '+.duurl.cn'
  - '+.duxiaomai.net'
  - '+.duxuetang.cn'
  - '+.duxuetang.com'
  - '+.dwz.cn'
  - '+.estrongs.com'
  - '+.eyoubaidu.com'
  - '+.fhldns.cn'
  - '+.fhldns.com'
  - '+.fhldns.com.cn'
  - '+.fhldns.net'
  - '+.game-client.com'
  - '+.haluan2u.com'
  - '+.hao123.com'
  - '+.hao123.net'
  - '+.hao123img.com'
  - '+.hao222.com'
  - '+.hao222.net'
  - '+.haokan.com'
  - '+.hiapk.com'
  - '+.hongmeiti.cn'
  - '+.hongmeiti.com'
  - '+.hongmeiti.com.cn'
  - '+.hongmeiti.net'
  - '+.huoyanyunying.com'
  - '+.ja-cloud.com'
  - '+.jingling.cn'
  - '+.jomocdn.cn'
  - '+.jomocdn.net'
  - '+.jomodns.cn'
  - '+.jomodns.com'
  - '+.jomodns.net'
  - '+.jpaas.cn'
  - '+.kanduoduo.com.cn'
  - '+.lasmasas.com'
  - '+.micro-game-client.com'
  - '+.mipcdn.com'
  - '+.mipengine.com'
  - '+.mipengine.org'
  - '+.mipplan.com'
  - '+.mipplan.org'
  - '+.nhmuni.com'
  - '+.nuomi.com'
  - '+.oasesalliance.com'
  - '+.oortos.tech'
  - '+.openintelliedge.tech'
  - '+.openrasp.cn'
  - '+.openrasp.com'
  - '+.openrasp.com.cn'
  - '+.openrasp.info'
  - '+.openrasp.net'
  - '+.openrasp.net.cn'
  - '+.openrasp.org'
  - '+.openrasp.org.cn'
  - '+.paddlepaddle.org.cn'
  - '+.popincdn.com'
  - '+.pubbcsapp.com'
  - '+.qxllq.com'
  - '+.sanguows.com'
  - '+.searchcraft.cn'
  - '+.sg.work'
  - '+.shifen.com'
  - '+.siteapp-static.com'
  - '+.smartapps.cn'
  - '+.swan366.com'
  - '+.tieba.com'
  - '+.tiebaimg.com'
  - '+.tradaquan.com'
  - '+.umaz.cn'
  - '+.videomind.cloud'
  - '+.videomind.cn'
  - '+.videomind.net'
  - '+.vplay8.com'
  - '+.webgamehome.com'
  - '+.wenku.in'
  - '+.wshifen.com'
  - '+.wssanguo.com'
  - '+.xianfae.com'
  - '+.xiaodutv.cn'
  - '+.xiaodutv.com'
  - '+.xiaoduzaijia.cn'
  - '+.xiaoduzaijia.com.cn'
  - '+.xinzhi.com'
  - '+.yeyingkf.com'
  - '+.yjs-cdn.com'
  - '+.yjs-cdn1.com'
  - '+.yjs-cdn10.com'
  - '+.yjs-cdn2.com'
  - '+.yjs-cdn3.com'
  - '+.yjs-cdn4.com'
  - '+.yjs-cdn5.com'
  - '+.yjs-cdn6.com'
  - '+.yjs-cdn7.com'
  - '+.yjs-cdn8.com'
  - '+.yjs-cdn9.com'
  - '+.yjsops.com'
  - '+.yunjiasu-cdn-dnssec.net'
  - '+.yunjiasu-cdn.com'
  - '+.yunjiasu-cdn.net'
  - '+.yunjiasu-dns.com'
  - '+.yunjiasu-dns.net'
  - '+.yunjiasu-test.com'
  - '+.yunjiasu.com'
  - '+.yunjiasucdn.info'
  - '+.yunjiasucdn.net'
  - '+.yunjiasudns.com'
  - '+.yunjiasudns.net'
  - '+.yunjiasupreview.com'
  - '+.yunjiasussl.com'
  - '+.zuoyebang.cc'
  - '+.zuoyebang.com'
  - '+.zybang.com'

# 腾讯
  - '+.1700.cn'
  - '+.17roco.com'
  - '+.700chat.com'
  - '+.accessibilityunion.cn'
  - '+.accessibilityunion.com'
  - '+.accessibilityunion.net.cn'
  - '+.accessibilityunion.org'
  - '+.accessibilityunion.org.cn'
  - '+.agcloudcs.com'
  - '+.aitangyou.com'
  - '+.alloyteam.com'
  - '+.apcdns.com'
  - '+.apcdns.net'
  - '+.apdcdn.com'
  - '+.armaf.org'
  - '+.ating.info'
  - '+.cdn-go.cn'
  - '+.cdntip.com'
  - '+.cdntips.com'
  - '+.cdntips.net'
  - '+.cfmna-tencent.com'
  - '+.cmfu.com'
  - '+.comsenz.com'
  - '+.dayugslb.com'
  - '+.dcloudlive.com'
  - '+.dcloudstc.com'
  - '+.discuz.com'
  - '+.discuz.net'
  - '+.discuz.org'
  - '+.dllzff.cn'
  - '+.dns.pub'
  - '+.dnsapi.cn'
  - '+.dnspod.cn'
  - '+.dnspod.com'
  - '+.dnspod.com.cn'
  - '+.dnspod.net'
  - '+.dnspod.org'
  - '+.dnsv1.com'
  - '+.dnsv2.com'
  - '+.dnsv3.com'
  - '+.dnsv4.com'
  - '+.dnsv5.com'
  - '+.doh.pub'
  - '+.ettdnsv.com'
  - '+.fatfreader.com'
  - '+.flzhan.cn'
  - '+.flzhan.com'
  - '+.foxmail.com'
  - '+.foxmail.com.cn'
  - '+.fsllq.com'
  - '+.fsllq.com.cn'
  - '+.fyeds0.com'
  - '+.fyeds1.com'
  - '+.fyeds2.com'
  - '+.fyeds3.com'
  - '+.fyeds4.com'
  - '+.fyeds5.com'
  - '+.fyeds6.com'
  - '+.fyeds7.com'
  - '+.fyeds8.com'
  - '+.fyeds9.com'
  - '+.gaapqcloud.com'
  - '+.gameitop.com'
  - '+.gameloop.fun'
  - '+.gcloudcs.com'
  - '+.gdtimg.com'
  - '+.gsadds.com'
  - '+.gtgres.com'
  - '+.gtimg.cn'
  - '+.gtimg.com'
  - '+.gtimg.com.cn'
  - '+.guichuideng.com'
  - '+.haina.com'
  - '+.hkgcloudcs.com'
  - '+.hongxiu.com'
  - '+.hr-welink.com'
  - '+.html5mark.com'
  - '+.huamengxiaoshuo.com'
  - '+.huyaos.com'
  - '+.idqqimg.com'
  - '+.igamecj.com'
  - '+.igcdn.cn'
  - '+.imqq.com'
  - '+.imweb.io'
  - '+.in.th'
  - '+.isd.com'
  - '+.ivweb.io'
  - '+.jiangzidushu.com'
  - '+.jiangzikanshu.cn'
  - '+.jiangzikanshu.com'
  - '+.jiangziyuedu.com'
  - '+.jrzk.net.cn'
  - '+.kting.info'
  - '+.kuledushu.com'
  - '+.lazyaudio.com'
  - '+.lexiangla.com'
  - '+.lightalk.com'
  - '+.lrts.me'
  - '+.miloli.info'
  - '+.mmbizurl.cn'
  - '+.mmqidian.com'
  - '+.mobilemgr-global.com'
  - '+.molo.cn'
  - '+.mqqurl.com'
  - '+.msstatic.com'
  - '+.mting.info'
  - '+.my-qcloud.com'
  - '+.myapp.com'
  - '+.myqcloud.com'
  - '+.myqcloud.net'
  - '+.nagcloudcs.com'
  - '+.nba.com'
  - '+.onexmail.com'
  - '+.ovscdns.com'
  - '+.ovscdns.net'
  - '+.pcmgr-global.com'
  - '+.pengyou.com'
  - '+.prayaya.com'
  - '+.pubgtool.com'
  - '+.qbview.com'
  - '+.qcloud.com'
  - '+.qcloud.la'
  - '+.qcloudcdn.cn'
  - '+.qcloudcdn.com'
  - '+.qcloudcdntest.cn'
  - '+.qcloudcjgj.com'
  - '+.qcloudcos.com'
  - '+.qclouder.com'
  - '+.qcloudimg.com'
  - '+.qcloudmarket.com'
  - '+.qcloudwaf.com'
  - '+.qcloudwzgj.com'
  - '+.qcloudzygj.com'
  - '+.qdcloudsolution.com'
  - '+.qdd.gd'
  - '+.qdd.gg'
  - '+.qdd.la'
  - '+.qdmm.com'
  - '+.qdwenxue.com'
  - '+.qidian.cn'
  - '+.qidian.com'
  - '+.qidianmm.com'
  - '+.qlippie.com'
  - '+.qmail.com'
  - '+.qpimg.cn'
  - '+.qplus.com'
  - '+.i.qq.com'
  - '+.tgpa.qq.com'
  - '+.qq.com'
  - '+.qq.com.cn'
  - '+.qq.xn--fiqs8s'
  - '+.qqgameapp.com'
  - '+.qqgames.com'
  - '+.qqmail.com'
  - '+.qqopenapp.com'
  - '+.qqurl.com'
  - '+.qstatic.com'
  - '+.qzone.com'
  - '+.qzoneapp.com'
  - '+.rdgz.org'
  - '+.readnovel.com'
  - '+.rmwxgame.com'
  - '+.roblox.cn'
  - '+.romzj.com'
  - '+.rootjl.com'
  - '+.rtx.com.cn'
  - '+.rtxapp.com'
  - '+.rtxonline.com'
  - '+.safejmp.com'
  - '+.shuame.com'
  - '+.shurl.cn'
  - '+.sixjoy.com'
  - '+.smtcdns.com'
  - '+.smtcdns.net'
  - '+.soso.com'
  - '+.spcdntip.com'
  - '+.ssibility-union.com.cn'
  - '+.supercellsupport.cn'
  - '+.taotao.com'
  - '+.tapd.cn'
  - '+.tav-global.com'
  - '+.tcdnhw.com'
  - '+.tcdnlive.com'
  - '+.tcdnos.com'
  - '+.tcdnvod.com'
  - '+.tcloudbase.com'
  - '+.tcloudbaseapp.com'
  - '+.tcloudscdn.com'
  - '+.tcloudscdn.net'
  - '+.tdnsv1.com'
  - '+.tdnsv5.com'
  - '+.tdnsv6.com'
  - '+.tencdns.net'
  - '+.tencent-cloud.com'
  - '+.tencent-cloud.net'
  - '+.tencent.cn'
  - '+.tencent.com'
  - '+.tencent.com.cn'
  - '+.tencent.com.hk'
  - '+.tencent.net.cn'
  - '+.tencentads.com'
  - '+.tencentapps.com'
  - '+.tencentcdb.com'
  - '+.tencentclb.com'
  - '+.tencentcloud-aiot.com'
  - '+.tencentcloudapi.com'
  - '+.tencentcloudcr.com'
  - '+.tencentcloudmarket.com'
  - '+.tencentcs.com'
  - '+.tencentdb.com'
  - '+.tencentelasticsearch.com'
  - '+.tencentipv6.com'
  - '+.tencentlog.com'
  - '+.tencentmind.com'
  - '+.tencentyun.com'
  - '+.testjrzk.net.cn'
  - '+.tgovcloud.com'
  - '+.timatrix.com.cn'
  - '+.tingbook.com'
  - '+.tisi.org'
  - '+.tos.cn'
  - '+.tourismshow.cn'
  - '+.tourismuser.cn'
  - '+.tqapp.cn'
  - '+.tqapp.com'
  - '+.tsparkling.com'
  - '+.tswjs.org'
  - '+.twsapp.com'
  - '+.tx-exhibition.com'
  - '+.txbanche.com'
  - '+.txyscdn.com'
  - '+.txyscdn.net'
  - '+.ugdtimg.com'
  - '+.upqzfile.com'
  - '+.upqzfilebk.com'
  - '+.url.cn'
  - '+.urldx.cn'
  - '+.urlshare.cn'
  - '+.voovlive.com'
  - '+.wanjiashow.com'
  - '+.webnovel.com'
  - '+.wegame.com'
  - '+.wegame.com.cn'
  - '+.weiaixiaoshuo.com'
  - '+.weishi.com'
  - '+.weiyun.com'
  - '+.wesingapp.com'
  - '+.weui.io'
  - '+.wisefx.cn'
  - '+.wisefx.com'
  - '+.wnsqzonebk.com'
  - '+.woa.com'
  - '+.wting.info'
  - '+.wxgamemini.com'
  - '+.wxlagame.com'
  - '+.wxutil.com'
  - '+.xdxiaoshuo.com'
  - '+.xn--r70as2s.xn--fiqs8s'
  - '+.xs.cn'
  - '+.xs8.cn'
  - '+.xuz0.cn'
  - '+.xxsy.com'
  - '+.xxsy.net'
  - '+.yayagushi.cn'
  - '+.yayagushi.com'
  - '+.yqacg.com'
  - '+.yuewen.com'
  - '+.yux.team'
  - '+.ywurl.cn'
  - '+.ywurl.com'
  - '+.yximg.cn'
  - '+.zjump.cn'

# 小米
  - '+.408399.com'
  - '+.408399.net'
  - '+.816798.net'
  - '+.account-cn.huami.com'
  - '+.airstar.com'
  - '+.aleenote.cn'
  - '+.aleenote.com'
  - '+.alibiji.cn'
  - '+.alinotes.cn'
  - '+.aos-incentive.huami.com'
  - '+.api-aos-cnbj6.huami.com'
  - '+.api-mifit-cn.huami.com'
  - '+.api-mifit.huami.com'
  - '+.app-analytics-cn.huami.com'
  - '+.duokan.com'
  - '+.duokanbox.com'
  - '+.facephoto.com'
  - '+.fe-cdn.huami.com'
  - '+.fe-static.huami.com'
  - '+.growth.ai.srv'
  - '+.heihei.com'
  - '+.hongmi.cn'
  - '+.kewucool.com'
  - '+.kssdata-yz1.kuaipandata.com'
  - '+.kssdata-yz2-lt.kuaipandata.com'
  - '+.kssdata-yz2.kuaipandata.com'
  - '+.kssm.kuaipandata.com'
  - '+.kssv-w-yz01.kuaipandata.com'
  - '+.leijun.com'
  - '+.m3-cloud.com'
  - '+.mgslb.cn'
  - '+.mgslb.com'
  - '+.mgslb.net'
  - '+.mgslb.org'
  - '+.mi-ae.cn'
  - '+.mi-ae.com'
  - '+.mi-ae.com.cn'
  - '+.mi-ae.net'
  - '+.mi-cache.com'
  - '+.mi-cdn.com'
  - '+.mi-customer.com'
  - '+.mi-idc.com'
  - '+.mi-img.com'
  - '+.mi-img1.com'
  - '+.mi-img2.com'
  - '+.mi-img3.com'
  - '+.mi-img4.com'
  - '+.mi-img5.com'
  - '+.mi-static.com'
  - '+.mi.cn'
  - '+.mi.com'
  - '+.mi0.cc'
  - '+.mi1.cc'
  - '+.micoce.com.cn'
  - '+.micode.cn'
  - '+.micode.com.cn'
  - '+.micode.net'
  - '+.mifile.cn'
  - '+.mij.cc'
  - '+.mikge.com'
  - '+.miliao.com'
  - '+.milliant.com'
  - '+.mioffice.cn'
  - '+.mios.cn'
  - '+.mios.com.cn'
  - '+.mipay.com'
  - '+.mipush.com'
  - '+.miredian.com'
  - '+.miren.cn'
  - '+.mitalk.com'
  - '+.mitvos.com'
  - '+.mitvos.net'
  - '+.miui.cn'
  - '+.miui.com'
  - '+.mixinshe.com'
  - '+.miyun.com'
  - '+.peijian.com'
  - '+.qsb.browser.miui.srv'
  - '+.res.mi.baidu.com'
  - '+.restapi.amap.com'
  - '+.shunwei.cn'
  - '+.singapore01.kuaipandata.com'
  - '+.store-cdn.huami.com'
  - '+.thumb-yz01.kuaipandata.com'
  - '+.thumb-yz02.kuaipandata.com'
  - '+.thumb-yz69.kuaipandata.com'
  - '+.thumb-yz96.kuaipandata.com'
  - '+.timipc.com'
  - '+.tj1-miui-bn-stage01.kscn'
  - '+.wali.com'
  - '+.xiaomi.cn'
  - '+.ai.xiaomi.com'
  - '+.music.xiaomi.com'
  - '+.xiaomi.com'
  - '+.xiaomi.net'
  - '+.xiaomi.open.qingting.fm'
  - '+.xiaomi.org'
  - '+.xiaomicache.com'
  - '+.xiaomicorp.cn'
  - '+.xiaomicorp.com'
  - '+.xiaomicorp.com.cn'
  - '+.xiaomicorp.net'
  - '+.xiaomicp.com'
  - '+.xiaomidns.cn'
  - '+.xiaomidns.com'
  - '+.xiaomidns.com.cn'
  - '+.xiaomidns.net'
  - '+.xiaomiinc.cn'
  - '+.xiaomiinc.com'
  - '+.xiaomiinc.com.cn'
  - '+.xiaomiinc.net'
  - '+.xiaomisa.cn'
  - '+.xiaomisa.com'
  - '+.xiaomisa.net'
  - '+.xiaomisa.org'
  - '+.xiaomiyoupin.com'
  - '+.xlaomi.net'
  - '+.youpin.cn'
  - '+.youpin.com.cn'
  - '+.zhutidasai.com'

# 绿米联创
  - '+.aqara.cn'
  - '+.aqara.com'
  - '+.aqara.com.cn'
  - '+.lumiunited.cn'
  - '+.lumiunited.com'
  - '+.lumiunited.com.cn'

# 米物
  - '+.miiiw.cn'
  - '+.miiiw.com'
  - '+.miiiw.net'

# 美图
  - '+.meipai.com'
  - '+.meitu.com'
  - '+.meitudata.com'
  - '+.meitustat.com'

# camera360
  - '+.360in.com'
  - '+.52photo.com'
  - '+.c360dn.com'
  - '+.camera360.com'
  - '+.saladvideo.com'
  - '+.yipai.info'
  - '+.yipai360.com'
  - '+.ypjc.cloud'

# 脸萌
  - '+.2333333333333.com'
  - '+.bqtalk.com'
  - '+.faceu.com'
  - '+.faceu.com.cn'
  - '+.faceu.mobi'
  - '+.faceu.net'
  - '+.heycan.com'
  - '+.qmoji.mobi'
  - '+.qmoji.net'
  - '+.ulikecam.cn'
  - '+.ulikecam.com'
  - '+.ulikecam.mobi'
  - '+.ulikecam.net'

# 一下科技
  - '+.huangka.com'
  - '+.iyuezhang.net'
  - '+.miaokan.com'
  - '+.miaopai.com'
  - '+.vbbobo.com'
  - '+.vitamio.net'
  - '+.vitamio.org'
  - '+.vitamio.tv'
  - '+.vplayer.net'
  - '+.weishipin.com'
  - '+.xiaoka.tv'
  - '+.xiaokaxiu.com'
  - '+.yixia.com'
  - '+.yixiatong.com'

# 金山软件
  - '+.35go.cn'
  - '+.35go.net'
  - '+.3ny8.com'
  - '+.3r5y.com'
  - '+.4848360.cn'
  - '+.4848360.com'
  - '+.51dzt.com'
  - '+.78h34.com'
  - '+.800wen.com'
  - '+.93trf.com'
  - '+.9724.com'
  - '+.9724.com.cn'
  - '+.ahjk34.com'
  - '+.baobianli.cn'
  - '+.baobianli.net'
  - '+.baozengzhang.com'
  - '+.beike.cn'
  - '+.bestcloudcdn.com'
  - '+.bestclouddns.com'
  - '+.bk3r.com'
  - '+.cheetahgames.com'
  - '+.cheetahgo.net'
  - '+.cheetahmobile.com'
  - '+.cleanmaster.cn'
  - '+.cmcloud.org'
  - '+.cmcm.com'
  - '+.cmcmadmin.com'
  - '+.cmcmapp.com'
  - '+.cmcmcdn.com'
  - '+.cmcmcmai.com'
  - '+.cmcmiot.com'
  - '+.cmcmpc.com'
  - '+.cmcmsecurity.com'
  - '+.cmcmserv.com'
  - '+.cmcmtrans.com'
  - '+.cmdev.cn'
  - '+.coh5.cn'
  - '+.conew.cn'
  - '+.conew.com'
  - '+.crasheye.cn'
  - '+.d4z1onkegyrs5.cloudfront.net'
  - '+.d9j8.com'
  - '+.dfig0.com'
  - '+.dgk2n.com'
  - '+.di28nl.com'
  - '+.diffir.com'
  - '+.djkhgy2.com'
  - '+.djrhf0.com'
  - '+.dkhg23.com'
  - '+.docer.com'
  - '+.douhuameiquan.cn'
  - '+.douhuameiquan.com'
  - '+.douhuameiquan.net'
  - '+.drivergenius.com'
  - '+.duba.com'
  - '+.duba.net'
  - '+.duojoy.cn'
  - '+.dur9.com'
  - '+.erg3r.com'
  - '+.fatherai.com'
  - '+.firefallgame.cn'
  - '+.g768r.com'
  - '+.gfh82.com'
  - '+.global-ks-cdn.com'
  - '+.h803w.com'
  - '+.hd8y.com'
  - '+.heytime.cn'
  - '+.hid98ys.com'
  - '+.hkd82.com'
  - '+.iappsafe.cn'
  - '+.iappsafe.com'
  - '+.iciba.com'
  - '+.iciba.net'
  - '+.id4r.com'
  - '+.id4r.net'
  - '+.idaasksyun.com'
  - '+.ifireeye.cn'
  - '+.ifireeye.com'
  - '+.ihuoyan.cn'
  - '+.ihuoyan.com'
  - '+.ijinshan.com'
  - '+.ileopard.com'
  - '+.ingags.com'
  - '+.ishengdian.cn'
  - '+.iuhtg8.com'
  - '+.iweikan.cn'
  - '+.ixiede.com'
  - '+.j6n29.com'
  - '+.jkhds872.com'
  - '+.jksdhgu.com'
  - '+.jxfeng.com'
  - '+.jxphone.com'
  - '+.jxsj2sy.com'
  - '+.kcdnvip.com'
  - '+.kdocs.cn'
  - '+.keniu.cn'
  - '+.kimg.cn'
  - '+.kingcloud.com'
  - '+.kingcloudad.com'
  - '+.kingmb.cn'
  - '+.kingmb.com'
  - '+.kingmobi.cn'
  - '+.kingsoft-office-service.com'
  - '+.kingsoft.com'
  - '+.kisops.com'
  - '+.kjsdh6.com'
  - '+.kmail.com'
  - '+.ks-cdn.com'
  - '+.ks-cdn1.com'
  - '+.ks-cdnv6.com'
  - '+.ks-live.com'
  - '+.ksc-test.com'
  - '+.kscbigdata.cloud'
  - '+.kscloudapi.com'
  - '+.ksdhgy.com'
  - '+.kshwtj.com'
  - '+.ksmobile.com'
  - '+.ksmobile.net'
  - '+.ksoapp.com'
  - '+.ksops.com'
  - '+.ksord.com'
  - '+.ksosoft.com'
  - '+.ksycdn.cn'
  - '+.ksyna.com'
  - '+.ksyun.com'
  - '+.ksyun.net'
  - '+.ksyunacc.cn'
  - '+.ksyunad.com'
  - '+.ksyuncdn-k1.com'
  - '+.ksyuncdn-k2.com'
  - '+.ksyuncdn.com'
  - '+.ksyuncdnv6.com'
  - '+.ksyuncs.com'
  - '+.ksyungslb.com'
  - '+.ksyungslb2.com'
  - '+.ksyunv5.com'
  - '+.ksyunv6.com'
  - '+.ksyunv7.com'
  - '+.ksyunwaf.com'
  - '+.kuaipandata.com'
  - '+.lbmobi.com'
  - '+.liebao.cn'
  - '+.liebao.org.cn'
  - '+.liebaoh5.com'
  - '+.liebaopay.com'
  - '+.ljhks.com'
  - '+.ljhks.net'
  - '+.marshotspot.com'
  - '+.myfiles.com.cn'
  - '+.northgun.com'
  - '+.oversea-ks-cdn.com'
  - '+.papocket.com'
  - '+.pc120.com'
  - '+.prpracg.com'
  - '+.q-supreme.cn'
  - '+.q-supreme.com'
  - '+.q78s5.com'
  - '+.qinglidashi.com'
  - '+.qwe1e.com'
  - '+.qwps.cn'
  - '+.qwps.com'
  - '+.qwps.net'
  - '+.r9t1.com'
  - '+.rat3c.com'
  - '+.ratingtoken.com.cn'
  - '+.ratingtoken.net'
  - '+.rubylink.cn'
  - '+.s-zone.com'
  - '+.s7y3.com'
  - '+.safeapk.cn'
  - '+.safeapp.cn'
  - '+.sdg53.com'
  - '+.sdhgu.com'
  - '+.seasungame.com'
  - '+.seasungames.com'
  - '+.shangyouxuan.com'
  - '+.shkdfua.com'
  - '+.shoujikong.cn'
  - '+.showshell.com'
  - '+.skdj5.com'
  - '+.skidstorm.com'
  - '+.slja2.com'
  - '+.snap-buy.com'
  - '+.springen.cn'
  - '+.supervisionus.com'
  - '+.t4x3.com'
  - '+.t79d6.com'
  - '+.t7rt5.com'
  - '+.tellbuy.cn'
  - '+.testplus.cn'
  - '+.typeeasy.cn'
  - '+.typeeasy.net'
  - '+.v78q.com'
  - '+.wakaligong.com'
  - '+.weikan.cn'
  - '+.whwps.cn'
  - '+.wps-h5.cn'
  - '+.wps.cn'
  - '+.wps.com'
  - '+.wpscdn.cn'
  - '+.wpscdn.com'
  - '+.wpseco.cn'
  - '+.wpsep.net'
  - '+.wpsgo.com'
  - '+.wpsit.cn'
  - '+.wpske.cn'
  - '+.wpske.com'
  - '+.wpsmail.net'
  - '+.wpspay.cn'
  - '+.wpspdf.cn'
  - '+.wpsplus.com'
  - '+.wpsxiu.cn'
  - '+.x3g1.com'
  - '+.xiaobaobianli.cn'
  - '+.xiaobaobianli.com'
  - '+.xiaobaobianli.net'
  - '+.xindexuexi.cn'
  - '+.xindexuexi.com'
  - '+.xishanju.com'
  - '+.xiutang01.cn'
  - '+.xiutang02.cn'
  - '+.xiutang03.cn'
  - '+.xiutang04.cn'
  - '+.xiutang05.cn'
  - '+.xiutang06.cn'
  - '+.xiutang07.cn'
  - '+.xiutang08.cn'
  - '+.xiutang09.cn'
  - '+.xiutang10.cn'
  - '+.xiutang11.cn'
  - '+.xiutang12.cn'
  - '+.xiutang13.cn'
  - '+.xiutang14.cn'
  - '+.xiutang15.cn'
  - '+.xiutang16.cn'
  - '+.xiutang17.cn'
  - '+.xiutang18.cn'
  - '+.xiutang19.cn'
  - '+.xiutang20.cn'
  - '+.xiutangh5.cn'
  - '+.xoyo.com'
  - '+.xoyobox.com'
  - '+.xoyocdn.com'
  - '+.xsjcs.cn'
  - '+.xsjom.com'
  - '+.y78r.com'
  - '+.yingyongso.com'
  - '+.yk72e.com'
  - '+.yt98w.com'
  - '+.z211.top'
  - '+.z211.vip'
  - '+.zhishifanli.cn'
  - '+.zhishifanli.com'
  - '+.zhishifanli.com.cn'
  - '+.zj8t5.com'
  - '+.znstartups.com'

# 奇虎360
  - '+.0360.cn'
  - '+.1360.cn'
  - '+.1360.com'
  - '+.3360.cn'
  - '+.360-api.cn'
  - '+.360-g.cn'
  - '+.360-g.net'
  - '+.360-game.net'
  - '+.360-jr.com'
  - '+.360.cn'
  - '+.360.com'
  - '+.3600.com'
  - '+.360adlab.cn'
  - '+.360adlab.com'
  - '+.360adlab.net'
  - '+.360adlab.org'
  - '+.360cc.cn'
  - '+.360cdn.cn'
  - '+.360chou.cn'
  - '+.360chou.com'
  - '+.360daikuan.com'
  - '+.360dlcdn.com'
  - '+.360doc.com'
  - '+.360doc.net'
  - '+.360doc11.net'
  - '+.360doc18.net'
  - '+.360doc21.net'
  - '+.360doc22.net'
  - '+.360doc25.net'
  - '+.360doc30.net'
  - '+.360doc33.net'
  - '+.360doc35.net'
  - '+.360doc36.net'
  - '+.360doc37.net'
  - '+.360doc4.net'
  - '+.360durl.cn'
  - '+.360gtm.com'
  - '+.360huzhubao.cn'
  - '+.360huzhubao.com'
  - '+.360huzhubao.com.cn'
  - '+.360imgcdn.com'
  - '+.360jie.com'
  - '+.360jie.com.cn'
  - '+.360jiekuan.com.cn'
  - '+.360jinrong.net'
  - '+.360jrjietiao.com'
  - '+.360jrjietiao.com.cn'
  - '+.360kan.com'
  - '+.360kuai.com'
  - '+.360os.com'
  - '+.360panyun.cn'
  - '+.360panyun.com'
  - '+.360panyun.net'
  - '+.360pay.cn'
  - '+.360qhcdn.com'
  - '+.360qurl.cn'
  - '+.360qyaq.com'
  - '+.360safe.com'
  - '+.360shouji.com'
  - '+.360shuke.com'
  - '+.360sjyh.cn'
  - '+.360so.com'
  - '+.360so.net'
  - '+.360sos.cn'
  - '+.360sou.cn'
  - '+.360sou.com'
  - '+.360sou.com.cn'
  - '+.360sou.net'
  - '+.360src.cn'
  - '+.360src.com'
  - '+.360taojin.com'
  - '+.360totalsecurity.com'
  - '+.360tpcdn.cn'
  - '+.360tpcdn.com'
  - '+.360vcloud.com'
  - '+.360vcloud.net'
  - '+.360webcache.com'
  - '+.360wzb.cn'
  - '+.360wzb.com'
  - '+.360xinyongka.com'
  - '+.360xlab.cn'
  - '+.360xlab.com'
  - '+.360xlab.net'
  - '+.360xlab.org'
  - '+.360xyws.com'
  - '+.360zhushou.com'
  - '+.360zqaq.com'
  - '+.50union.com'
  - '+.6360.com'
  - '+.7360.cn'
  - '+.ad-diamond.cn'
  - '+.ad-diamond.com'
  - '+.aga21.cn'
  - '+.aixinhaitun.cn'
  - '+.aixinhaitun.com'
  - '+.aixinhaitun.com.cn'
  - '+.anquanke.com'
  - '+.appjiagu.com'
  - '+.as84e.cn'
  - '+.b0xot.cn'
  - '+.b1pnz.cn'
  - '+.b8zey.cn'
  - '+.bbm0v.cn'
  - '+.bogg4.cn'
  - '+.brmnq.com'
  - '+.by0pq.cn'
  - '+.c30tu.cn'
  - '+.c4vxy.cn'
  - '+.c8bjj.cn'
  - '+.ccx4e.cn'
  - '+.ciscon.org'
  - '+.cmedia360.com'
  - '+.cwvjg.cn'
  - '+.czo66.cn'
  - '+.d6uab.cn'
  - '+.d768h.cn'
  - '+.d78qi.cn'
  - '+.da4bt.cn'
  - '+.debiq.cn'
  - '+.dgno3.cn'
  - '+.dhrest.com'
  - '+.dhrest2.com'
  - '+.dj3ba.cn'
  - '+.druqq.cn'
  - '+.du6fk.cn'
  - '+.dxson.cn'
  - '+.dz0p8.cn'
  - '+.dzpw1.cn'
  - '+.e6dk1.cn'
  - '+.ebjvu.cn'
  - '+.edra5.cn'
  - '+.eg8j4.cn'
  - '+.eht48.cn'
  - '+.ejull.cn'
  - '+.ekcnu.cn'
  - '+.em0bu.cn'
  - '+.eqb2g.cn'
  - '+.ez2q5.cn'
  - '+.ez4q2.cn'
  - '+.f1bbu.cn'
  - '+.f3n0k.cn'
  - '+.fc7eh.cn'
  - '+.fie1i.cn'
  - '+.fihlx.cn'
  - '+.fm18l.cn'
  - '+.fou2d.cn'
  - '+.fu81q.cn'
  - '+.g0ng7.cn'
  - '+.g1awi.cn'
  - '+.g4844.cn'
  - '+.g9hc4.cn'
  - '+.gamepack.cn'
  - '+.haoso.com'
  - '+.haosou.com'
  - '+.haosou.com.cn'
  - '+.haosou.net'
  - '+.haosou360.com'
  - '+.i360mall.com'
  - '+.ics-sec.com'
  - '+.igame360.cn'
  - '+.ioage.com'
  - '+.jkjiekuan.com'
  - '+.jrdaikuan.com.cn'
  - '+.jrjiekuan.com'
  - '+.jrurl.cn'
  - '+.kouxin.cn'
  - '+.kouxin.com'
  - '+.kouxin.net'
  - '+.luyou360.cn'
  - '+.mgamer.cn'
  - '+.monidata.com'
  - '+.ncfimg.com'
  - '+.nelab-bdst.org.cn'
  - '+.nicaifu.com'
  - '+.nicaifu.net'
  - '+.nzwgs.com'
  - '+.os-lb.com'
  - '+.passivedns.cn'
  - '+.qftexpay.cn'
  - '+.qh-cdn.com'
  - '+.qh-dl.com'
  - '+.qh-lb.com'
  - '+.qhcdn-lb.com'
  - '+.qhcdn.com'
  - '+.qhdlcdn.com'
  - '+.qhimg.com'
  - '+.qhimgs.com'
  - '+.qhimgs0.com'
  - '+.qhimgs1.com'
  - '+.qhimgs2.com'
  - '+.qhimgs3.com'
  - '+.qhimgs4.com'
  - '+.qhimgs5.com'
  - '+.qhimgs6.com'
  - '+.qhimg'
  - '+.qhmsg.cn'
  - '+.qhmsg.com'
  - '+.qhres.com'
  - '+.qhres2.com'
  - '+.qhsetup.cn'
  - '+.qhsetup.com'
  - '+.qhstatic.cn'
  - '+.qhstatic.com'
  - '+.qhtui.cn'
  - '+.qhtui.com'
  - '+.qhupdate.cn'
  - '+.qhupdate.com'
  - '+.qihoo.cn'
  - '+.qihoo.com'
  - '+.qihoo.com.cn'
  - '+.qihoo.net'
  - '+.qihu-lb.com'
  - '+.qihu.com'
  - '+.qihuapi.cn'
  - '+.qihuapi.com'
  - '+.qihucdn.cn'
  - '+.qihucdn.com'
  - '+.qikoo.com'
  - '+.qiku.com'
  - '+.qikucdn.com'
  - '+.qiyuns3.cn'
  - '+.qiyuns3.com'
  - '+.qss-lb.com'
  - '+.safe-lb.com'
  - '+.securityinsight.com'
  - '+.securityinsight.com.cn'
  - '+.shanghaiqihu.cn'
  - '+.shanghaiqihu.com'
  - '+.so.com'
  - '+.sou.cn'
  - '+.sou.com'
  - '+.syscan360.com'
  - '+.syscan360.net'
  - '+.syscan360.org'
  - '+.theworld.cn'
  - '+.urlqh.cn'
  - '+.useso.com'
  - '+.vcloudgtm.cn'
  - '+.vcloudgtm.com'
  - '+.vcloudgtm.net'
  - '+.wggames.cn'
  - '+.worldofship.cn'
  - '+.worldoftank.cn'
  - '+.wotgame.cn'
  - '+.wowsgame.cn'
  - '+.woxihuan.com'
  - '+.wztsy.cn'
  - '+.wztsy.com'
  - '+.xianousiqi.com'
  - '+.xiaoluzhidian.com'
  - '+.xihuan.me'
  - '+.xjietiao.com'
  - '+.yiwanzhushou.com'
  - '+.your360loans.com'
  - '+.yunpan.cn'
  - '+.yunpan.com'
  - '+.yunpan.com.cn'

# 鲁大师
  - '+.birdpaper.cn'
  - '+.dualspace.com'
  - '+.dualspacetech.com'
  - '+.easyclean.fun'
  - '+.kejids.cn'
  - '+.kejids.com'
  - '+.ludan.cn'
  - '+.ludashi.cn'
  - '+.ludashi.com'
  - '+.monidashi.cn'
  - '+.monidashi.com.cn'
  - '+.superlitetech.com'
  - '+.taojike.cn'
  - '+.xiaoluerhuo.com'
  - '+.xiaoluhaohuo.com'
  - '+.xiaoluyouxuan.com'
  - '+.youhua.com'

# 网易
  - '+.126.am'
  - '+.126.com'
  - '+.126.fm'
  - '+.126.link'
  - '+.126.net'
  - '+.127.com'
  - '+.127.net'
  - '+.127cdn.com'
  - '+.163.com'
  - '+.163.fm'
  - '+.163.link'
  - '+.163adl.com'
  - '+.163cms.cn'
  - '+.163cms.com'
  - '+.163fen.com'
  - '+.163img.cn'
  - '+.163img.com'
  - '+.163industry.com'
  - '+.163jiasu.com'
  - '+.163kada.com'
  - '+.163mail.com'
  - '+.163mail.net'
  - '+.163nasa.com'
  - '+.163nos.com'
  - '+.166.com'
  - '+.166.net'
  - '+.166cdn.com'
  - '+.166dns.com'
  - '+.188.com'
  - '+.188.net'
  - '+.188cdn.com'
  - '+.21cntx.com'
  - '+.321fenx.com'
  - '+.adl163.com'
  - '+.chatnos.com'
  - '+.dingwei.link'
  - '+.easebar.com'
  - '+.easebar.net'
  - '+.gamehaopu.com'
  - '+.haowu.link'
  - '+.huihui.cn'
  - '+.hukeck.com'
  - '+.hukecs.com'
  - '+.hukecwx.com'
  - '+.hukefjb.com'
  - '+.hukehyh.com'
  - '+.hukelc.com'
  - '+.hukenb.com'
  - '+.hukesxm.com'
  - '+.hukewq.com'
  - '+.hukexyy.com'
  - '+.icourse163.cn'
  - '+.icourse163.com'
  - '+.icourse163.org'
  - '+.icourses163.cn'
  - '+.icourses163.com'
  - '+.icourses163.org'
  - '+.kada.com'
  - '+.kada163.com'
  - '+.laiqukankan.com'
  - '+.lf126.net'
  - '+.lf127.net'
  - '+.lofter.com'
  - '+.marvelunlimitedresources.com'
  - '+.nbhuke.com'
  - '+.ndiip.com'
  - '+.nease.net'
  - '+.netease-inc.com'
  - '+.netease.com'
  - '+.netease.im'
  - '+.neteasegame.com'
  - '+.neteasegame.net'
  - '+.neteasegames.com'
  - '+.neteasegames.net'
  - '+.netstatic.net'
  - '+.njdiip.com'
  - '+.ntes53.com'
  - '+.ntes53.net'
  - '+.ntescdn.com'
  - '+.playdisorder.com'
  - '+.playfab.cn'
  - '+.qiyukf.com'
  - '+.qiyukf.net'
  - '+.static163.net'
  - '+.tx163.com'
  - '+.yaoluu.com'
  - '+.ydstatic.cn'
  - '+.ydstatic.com'
  - '+.yeah.net'
  - '+.yodao.cn'
  - '+.yodao.com'
  - '+.yodao.com.cn'
  - '+.yodao.info'
  - '+.yodao.net'
  - '+.yodao.org'
  - '+.youdao.com'
  - '+.yqkk.link'
  - '+.ytiao.cn'
  - '+.ytiny.cn'
  - '+.yunxin163.com'
  - '+.yunxinapi.com'
  - '+.yunxindns.com'
  - '+.yunxinfw.com'
  - '+.yunxingslb.com'
  - '+.yunxinhi.com'
  - '+.yunxinhy.com'
  - '+.yunxinrtc.com'
  - '+.yunxinsvip.com'
  - '+.yunxinsvr.com'
  - '+.yunxinvcloud.com'
  - '+.yunxinvideo.com'
  - '+.zhuanzfx.com'

# 新浪
  - '+.001wifi.com'
  - '+.1kapp.com'
  - '+.4sender.com'
  - '+.4sender.net'
  - '+.51xiancheng.com'
  - '+.7g8g.cn'
  - '+.aduspot.com'
  - '+.appchizi.com'
  - '+.applinzi.com'
  - '+.appsina.com'
  - '+.ctws.com.cn'
  - '+.cva.com.cn'
  - '+.dnssina.com'
  - '+.huoxing.com'
  - '+.ikaola.cn'
  - '+.ilangqu.cn'
  - '+.ilangqu.com'
  - '+.ilangqu.com.cn'
  - '+.imark.cn'
  - '+.kandian.cn'
  - '+.kandian.com'
  - '+.kandian.net'
  - '+.kandian.tv'
  - '+.kanyouxi.cn'
  - '+.kanyouxi.com'
  - '+.kanyouxi.com.cn'
  - '+.kanyouxi.tv'
  - '+.maileds.com'
  - '+.mingxigu.com'
  - '+.paogame.cn'
  - '+.picself.cn'
  - '+.picself.com.cn'
  - '+.qingmail.cn'
  - '+.qingmail.com'
  - '+.saebbs.com'
  - '+.sc2yun.com'
  - '+.senderline.com'
  - '+.senderline.net'
  - '+.simadata.cn'
  - '+.sina.cn'
  - '+.sina.com'
  - '+.sina.com.cn'
  - '+.sina.net'
  - '+.sinaapp.cn'
  - '+.sinaapp.com'
  - '+.sinacdn.com'
  - '+.sinacloud.cn'
  - '+.sinacloud.com'
  - '+.sinacloud.com.cn'
  - '+.sinacloud.net'
  - '+.sinacorp.cn'
  - '+.sinadaxue.cn'
  - '+.sinadaxue.com'
  - '+.sinadaxue.com.cn'
  - '+.sinaedge.cn'
  - '+.sinaedge.com'
  - '+.sinaimg.cn'
  - '+.sinaimg.com'
  - '+.sinaimg.com.cn'
  - '+.sinajs.cn'
  - '+.sinanet.com'
  - '+.sinanode.com'
  - '+.sinas3.com'
  - '+.sinas3.net'
  - '+.sinastorage.cn'
  - '+.sinastorage.com'
  - '+.sinasws.com'
  - '+.sinauda.com'
  - '+.sinaurl.cn'
  - '+.smtcdn.com'
  - '+.t.cn'
  - '+.talldns.cn'
  - '+.talldns.com'
  - '+.talldns.net'
  - '+.twgame.cn'
  - '+.twgame.com.cn'
  - '+.ufc.cn'
  - '+.videoself.cn'
  - '+.vipappsina.com'
  - '+.vipsinaapp.com'
  - '+.vmoso.cn'
  - '+.volleychina.org'
  - '+.vshoucang.com'
  - '+.wan68.com'
  - '+.wapone.net'
  - '+.wbimg.cn'
  - '+.wbimg.com'
  - '+.wbimg.com.cn'
  - '+.wcdn.cn'
  - '+.weipan.cn'
  - '+.weipan.com.cn'
  - '+.yangfan.org.cn'

# 搜狐
  - '+.acoloo.com'
  - '+.baokang.com'
  - '+.didipai.com'
  - '+.dm518.cn'
  - '+.domeos.cn'
  - '+.domeos.com.cn'
  - '+.focus.cn'
  - '+.gfeel.com.cn'
  - '+.ggoplay.com'
  - '+.ggowan.com'
  - '+.go2map.com'
  - '+.goodfeel.cn'
  - '+.hixiaoe.com'
  - '+.imancheng.cn'
  - '+.itc.cn'
  - '+.itc.com.cn'
  - '+.k.sohu'
  - '+.m.sohu'
  - '+.pinyin.cn'
  - '+.qd.ink'
  - '+.sg.cn'
  - '+.sgyeyou.com'
  - '+.sgyouxi.com'
  - '+.sogo.com'
  - '+.sogou-inc.com'
  - '+.sogou-op.org'
  - '+.sogou.cn'
  - '+.sogou.com'
  - '+.sogou.com.cn'
  - '+.sogou.net'
  - '+.sogoucdn.com'
  - '+.sohu-inc.com'
  - '+.sohu.cn'
  - '+.sohu.com'
  - '+.sohu.com.cn'
  - '+.sohuapps.com'
  - '+.sohucs.com'
  - '+.sohumail.com'
  - '+.sohuora.com'
  - '+.sohurdc.com'
  - '+.sohusce.com'
  - '+.soso.com.cn'
  - '+.sososnap.com'
  - '+.t.sohu'
  - '+.teemo.cn'
  - '+.tv.sohu'
  - '+.v.sohu'
  - '+.wowenwen.com'
  - '+.xinyan.cn'
  - '+.yeyousg.com'
  - '+.yidianliulan.cn'
  - '+.yidianliulan.com'

# 58同城 / 赶集网
  - '+.58.com'
  - '+.58.com.cn'
  - '+.5858.com'
  - '+.58cdn.com.cn'
  - '+.58che.com'
  - '+.58control.cn'
  - '+.58corp.com'
  - '+.58ganji.com'
  - '+.58img.com.cn'
  - '+.58lovepet.com'
  - '+.58peilian.com'
  - '+.58shangban.com'
  - '+.58supin.com'
  - '+.58v5.cn'
  - '+.58xueche.com'
  - '+.bangbang.com'
  - '+.boxiaole.com'
  - '+.caihongjia.com'
  - '+.canbaojin.com'
  - '+.chinahr.com'
  - '+.cnmo-img.com.cn'
  - '+.cnmo.com'
  - '+.daojia-inc.com'
  - '+.daojia.com'
  - '+.daojialianmeng.com'
  - '+.ddimg.net'
  - '+.diandao.org'
  - '+.dj.tc'
  - '+.djcdn.com.cn'
  - '+.djtest.cn'
  - '+.ganji.com'
  - '+.ganjistatic1.com'
  - '+.jiaoyibao.com'
  - '+.jxedt.com'
  - '+.kuche.com'
  - '+.m91.com.cn'
  - '+.nidiandaojia.com'
  - '+.rescdn.cn'
  - '+.roomeet.cn'
  - '+.sofun.com'
  - '+.wubashangban.com'
  - '+.xgo.com.cn'
  - '+.yirenjiankang.cn'

# keep
  - '+.calorietech.com'
  - '+.gotokeep.com'
  - '+.keep.com'
  - '+.keep.com.cn'
  - '+.keepcdn.com'

# 群晖 / QuickConnect
  - 'account.synology.com'
  - 'sns.synology.com'
  - 'global.quickconnect.cn'
  - '+.diskstation.me'
  - '+.dscloud.biz'
  - '+.dscloud.me'
  - '+.dscloud.mobi'
  - '+.dsmunas.com'
  - '+.dsmunas.net'
  - '+.dsmunas.org'
  - '+.familyds.com'
  - '+.familyds.net'
  - '+.familyds.org'
  - '+.i234.me'
  - '+.myds.com'
  - '+.synodns.com'
  - '+.synology.cn'
  - '+.synology.me'
  - '+.download.synology.com'
  - '+.synology.com'
  - '+.quickconnect.com'
  - '+.quickconnect.cn'
  - '+.quickconnect.to'

# 弹弹play
  - '+.acplay.net'
  - '+.dandanplay.com'
  - '+.dandanplayer.com'

# 墨迹天气
  - '+.airnut.com'
  - '+.moji.com'
  - '+.mojicb.com'
  - '+.mojichina.com'
  - '+.mojitest.com'
  - '+.moweather.com'
  - '+.xiaomo.cn'

# 易车网
  - '+.bitauto.com'
  - '+.bitautoimg.com'
  - '+.cheyisou.com'
  - '+.yccdn.com'
  - '+.yiche.com'

# 汽车之家
  - '+.autohome.com.cn'
  - '+.autohome.com'
