payload:
# 阿里云
  - '8.128.0.0/10'
  - '8.208.0.0/12'
  - '14.1.112.0/22'
  - '41.222.240.0/22'
  - '41.223.119.0/24'
  - '43.242.168.0/22'
  - '45.112.212.0/22'
  - '47.52.0.0/16'
  - '47.56.0.0/15'
  - '47.74.0.0/15'
  - '47.76.0.0/14'
  - '47.80.0.0/12'
  - '47.235.0.0/16'
  - '47.236.0.0/14'
  - '47.240.0.0/14'
  - '47.244.0.0/15'
  - '47.246.0.0/16'
  - '47.250.0.0/15'
  - '47.252.0.0/15'
  - '47.254.0.0/16'
  - '59.82.0.0/20'
  - '59.82.240.0/21'
  - '59.82.248.0/22'
  - '72.254.0.0/16'
  - '103.38.56.0/22'
  - '103.52.76.0/22'
  - '103.206.40.0/22'
  - '110.76.21.0/24'
  - '110.76.23.0/24'
  - '112.125.0.0/17'
  - '116.251.64.0/18'
  - '119.38.208.0/20'
  - '119.38.224.0/20'
  - '119.42.224.0/20'
  - '139.95.0.0/16'
  - '140.205.1.0/24'
  - '140.205.122.0/24'
  - '147.139.0.0/16'
  - '149.129.0.0/16'
  - '155.102.0.0/16'
  - '161.117.0.0/16'
  - '163.181.0.0/16'
  - '170.33.0.0/16'
  - '198.11.128.0/18'
  - '205.204.96.0/19'
  - '103.52.196.0/22'
  - '106.11.0.0/16'
  - '110.76.0.0/19'
  - '110.76.48.0/20'
  - '203.209.224.0/19'
  - '45.113.40.0/22'
  - '2400:b200::/32'

# 腾讯云
  - '1.116.116.0/22'
  - '1.116.216.0/23'
  - '1.117.118.0/23'
  - '1.117.218.0/23'
  - '1.12.102.0/23'
  - '1.12.116.0/22'
  - '1.12.212.0/23'
  - '1.13.116.0/22'
  - '1.14.104.0/23'
  - '1.14.206.0/23'
  - '1.15.102.0/23'
  - '1.15.208.0/23'
  - '103.238.16.0/22'
  - '103.38.116.0/22'
  - '106.52.0.0/14'
  - '109.244.0.0/16'
  - '111.229.0.0/16'
  - '111.230.0.0/15'
  - '115.159.0.0/16'
  - '118.126.64.0/18'
  - '118.24.0.0/15'
  - '118.89.0.0/16'
  - '119.27.160.0/19'
  - '119.28.0.0/15'
  - '119.45.0.0/16'
  - '120.88.56.0/23'
  - '121.51.0.0/16'
  - '122.152.192.0/18'
  - '123.206.0.0/15'
  - '128.108.0.0/16'
  - '129.204.0.0/16'
  - '129.211.0.0/16'
  - '129.28.0.0/16'
  - '132.232.0.0/16'
  - '134.175.0.0/16'
  - '139.155.0.0/16'
  - '139.186.0.0/16'
  - '139.199.0.0/16'
  - '140.143.0.0/16'
  - '146.56.192.0/18'
  - '148.70.0.0/16'
  - '150.158.0.0/16'
  - '152.136.0.0/16'
  - '154.8.128.0/17'
  - '162.14.0.0/16'
  - '172.81.192.0/18'
  - '175.24.0.0/16'
  - '182.254.0.0/16'
  - '188.131.128.0/17'
  - '192.144.128.0/17'
  - '193.112.0.0/16'
  - '203.195.128.0/17'
  - '203.205.128.0/19'
  - '203.205.176.0/22'
  - '203.205.188.0/24'
  - '203.205.191.0/24'
  - '203.205.193.0/24'
  - '203.205.194.0/23'
  - '203.205.218.0/23'
  - '203.205.220.0/22'
  - '203.205.224.0/24'
  - '203.205.232.0/21'
  - '203.205.240.0/24'
  - '203.205.242.0/24'
  - '203.205.244.0/23'
  - '203.205.248.0/21'
  - '210.73.160.0/19'
  - '211.152.128.0/22'
  - '211.152.132.0/23'
  - '211.152.136.0/23'
  - '211.152.144.0/22'
  - '211.152.148.0/23'
  - '211.152.152.0/22'
  - '211.152.156.0/24'
  - '211.159.128.0/17'
  - '212.129.128.0/17'
  - '212.64.0.0/17'
  - '42.187.128.0/17'
  - '42.194.128.0/17'
  - '43.242.252.0/22'
  - '43.247.196.0/22'
  - '45.40.192.0/18'
  - '49.232.0.0/14'
  - '49.51.0.0/19'
  - '49.51.104.0/22'
  - '49.51.108.0/23'
  - '49.51.128.0/18'
  - '49.51.192.0/20'
  - '49.51.224.0/23'
  - '49.51.228.0/22'
  - '49.51.232.0/21'
  - '49.51.240.0/20'
  - '49.51.32.0/20'
  - '49.51.48.0/21'
  - '49.51.62.0/23'
  - '49.51.64.0/19'
  - '49.51.96.0/21'
  - '58.87.64.0/18'
  - '62.234.0.0/16'
  - '81.68.0.0/14'
  - '94.191.0.0/17'
  - '2001:df6:f400::/48'
  - '2402:4e00::/32'

# 华为云
  - '78.101.192.0/19'
  - '78.101.224.0/20'
  - '81.52.161.0/24'
  - '85.97.220.0/22'
  - '103.31.200.0/22'
  - '103.69.140.0/23'
  - '103.218.216.0/22'
  - '114.115.128.0/17'
  - '114.116.224.0/19'
  - '114.116.0.0/16'
  - '116.63.128.0/18'
  - '116.66.184.0/22'
  - '116.71.96.0/20'
  - '116.71.128.0/21'
  - '116.71.136.0/22'
  - '116.71.141.0/24'
  - '116.71.142.0/24'
  - '116.71.243.0/24'
  - '116.71.244.0/24'
  - '116.71.251.0/24'
  - '117.78.0.0/18'
  - '119.3.0.0/16'
  - '119.8.0.0/21'
  - '119.8.32.0/19'
  - '121.36.0.0/15'
  - '121.36.0.0/17'
  - '121.36.128.0/18'
  - '121.37.0.0/17'
  - '122.112.128.0/17'
  - '122.112.128.0/18'
  - '122.112.196.0/22'
  - '122.112.200.0/21'
  - '122.112.208.0/20'
  - '122.112.224.0/19'
  - '124.70.128.0/18'
  - '124.70.240.0/20'
  - '139.159.128.0/19'
  - '139.159.160.0/22'
  - '139.159.164.0/23'
  - '139.159.168.0/21'
  - '139.159.168.0/22'
  - '139.159.176.0/20'
  - '139.159.192.0/18'
  - '139.9.0.0/17'
  - '139.9.0.0/18'
  - '139.9.64.0/19'
  - '139.9.100.0/22'
  - '139.9.104.0/21'
  - '139.9.112.0/20'
  - '139.9.128.0/18'
  - '139.9.128.0/20'
  - '139.9.160.0/19'
  - '139.9.192.0/19'
  - '139.9.224.0/20'
  - '139.9.240.0/21'
  - '139.9.248.0/22'
  - '43.254.0.0/22'
  - '45.249.212.0/22'
  - '49.4.0.0/17'
  - '49.4.0.0/19'
  - '49.4.112.0/21'
  - '49.4.120.0/22'
  - '49.4.124.0/23'
  - '49.4.126.0/24'
  - '49.4.48.0/20'
  - '49.4.64.0/19'
  - '159.138.0.0/18'
  - '159.138.64.0/21'
  - '159.138.79.0/24'
  - '159.138.80.0/20'
  - '159.138.96.0/20'
  - '159.138.112.0/21'
  - '159.138.125.0/24'
  - '159.138.128.0/18'
  - '159.138.192.0/20'
  - '159.138.223.0/24'
  - '159.138.224.0/19'
  - '168.195.92.0/22'
  - '185.176.76.0/22'
  - '197.199.0.0/18'
  - '197.210.163.0/24'
  - '197.252.1.0/24'
  - '197.252.2.0/23'
  - '197.252.4.0/22'
  - '197.252.8.0/21'
  - '200.32.52.0/24'
  - '200.32.54.0/24'
  - '200.32.57.0/24'
  - '203.135.0.0/22'
  - '203.135.4.0/23'
  - '203.135.8.0/23'
  - '203.135.11.0/24'
  - '203.135.13.0/24'
  - '203.135.20.0/24'
  - '203.135.22.0/23'
  - '203.135.24.0/23'
  - '203.135.26.0/24'
  - '203.135.29.0/24'
  - '203.135.33.0/24'
  - '203.135.38.0/23'
  - '203.135.40.0/24'
  - '203.135.43.0/24'
  - '203.135.48.0/24'
  - '203.135.50.0/24'
  - '2407:c080:1000::/37'
  - '2407:c080::/36'

# 百度云
  - '103.235.44.0/22'
  - '104.193.88.0/22'
  - '104.193.88.0/23'
  - '104.193.90.0/24'
  - '106.12.0.0/15'
  - '106.12.0.0/17'
  - '106.12.128.0/18'
  - '106.12.192.0/19'
  - '106.12.224.0/20'
  - '106.12.240.0/21'
  - '106.13.0.0/17'
  - '106.13.128.0/18'
  - '106.13.192.0/19'
  - '106.13.224.0/20'
  - '106.13.240.0/22'
  - '106.13.252.0/22'
  - '114.28.224.0/20'
  - '119.75.208.0/20'
  - '119.63.192.0/21'
  - '120.48.0.0/17'
  - '150.242.120.0/24'
  - '150.242.122.0/23'
  - '154.85.32.0/19'
  - '180.76.0.0/18'
  - '180.76.0.0/24'
  - '180.76.0.0/16'
  - '180.76.112.0/21'
  - '180.76.120.0/23'
  - '180.76.124.0/22'
  - '180.76.128.0/18'
  - '180.76.192.0/22'
  - '180.76.196.0/23'
  - '180.76.200.0/21'
  - '180.76.208.0/20'
  - '180.76.224.0/19'
  - '180.76.76.0/24'
  - '182.61.0.0/16'
  - '182.61.160.0/19'
  - '182.61.64.0/18'
  - '185.10.104.0/22'
  - '185.10.104.0/24'
  - '202.46.48.0/20'
  - '203.90.238.0/24'
  - '45.113.192.0/22'
  - '63.217.23.0/24'
  - '63.243.252.0/24'
  - '2400:da00::/32'
  - '2402:2b40:8000::/36'
  - '2402:2b40:a000::/36'
  - '240c:4000::/22'

# 金山云
  - '103.26.66.0/23'
  - '110.43.0.0/22'
  - '110.43.32.0/19'
  - '120.131.0.0/20'
  - '120.92.0.0/21'
  - '120.92.10.0/23'
  - '120.92.12.0/22'
  - '120.92.16.0/20'
  - '120.92.216.0/22'
  - '120.92.32.0/19'
  - '120.92.64.0/18'
  - '2401:1d40::/32'

# 360 云计算
  - '101.197.0.0/16'
  - '101.198.0.0/17'
  - '101.198.128.0/18'
  - '101.198.192.0/19'
  - '101.199.196.0/22'
  - '101.199.32.0/19'
  - '104.192.108.0/23'
  - '104.192.110.0/24'
  - '2405:a900:ffee::/48'
  - '2405:a900:fffe::/48'

# 京东云
  - '101.124.0.0/16'
  - '103.224.220.0/22'
  - '114.67.128.0/17'
  - '117.72.248.0/22'
  - '2402:db40::/33'
  - '2402:dfc0:50::/44'
  - '2402:dfc0::/44'
  - '2403:1ec0:1200::/48'

# 网易云
  - '103.196.64.0/22'
  - '103.71.120.0/21'
  - '103.71.128.0/22'
  - '103.71.196.0/22'
  - '103.71.200.0/22'
  - '103.72.12.0/22'
  - '103.72.128.0/21'
  - '103.72.16.0/20'
  - '103.72.32.0/20'
  - '103.72.48.0/21'
  - '103.74.32.0/20'
  - '106.2.32.0/19'
  - '106.2.64.0/18'
  - '114.113.196.0/22'
  - '114.113.200.0/22'
  - '123.58.160.0/19'
  - '42.186.0.0/16'
  - '45.127.128.0/22'
  - '45.253.112.0/21'
  - '45.253.132.0/22'
  - '45.253.136.0/21'
  - '45.253.144.0/20'
  - '45.253.160.0/19'
  - '45.253.192.0/19'
  - '45.253.224.0/20'
  - '45.253.240.0/22'
  - '45.253.96.0/20'
  - '59.111.0.0/16'
