payload:
# didi 滴滴出行
  - '+.apptaxi.com.cn'
  - '+.cxyule.com'
  - '+.didi-food.com'
  - '+.didi.cn'
  - '+.didi.xin'
  - '+.didialift.com'
  - '+.didiapp.net.cn'
  - '+.didiaustralia.blog'
  - '+.didichuxing.com'
  - '+.didiglobal.com'
  - '+.didimobility.co.jp'
  - '+.didimobility.com'
  - '+.didiopenapi.com'
  - '+.didiqiche.com'
  - '+.didistatic.com'
  - '+.diditaxi.com'
  - '+.diditaxi.com.cn'
  - '+.didiwuxian.com'
  - '+.didiyun.com'
  - '+.didiyun.org'
  - '+.didiyunapi.com'
  - '+.juyanwenjuan.com'
  - '+.udache.com'
  - '+.xiaojuchefu.cn'
  - '+.xiaojukeji.com'

# 高德
  - '+.a-map.cn'
  - '+.a-map.co'
  - '+.a-map.link'
  - '+.a-map.vip'
  - '+.amap.com'
  - '+.amapauto.com'
  - '+.anav.com'
  - '+.autonavi.com'
  - '+.gaode.com'

# 携程 / 去哪儿网
  - '+.c-ctrip.com'
  - '+.colinker.com'
  - '+.ctrip.cn'
  - '+.ctrip.co.id'
  - '+.ctrip.co.kr'
  - '+.ctrip.co.th'
  - '+.ctrip.com'
  - '+.ctrip.com.hk'
  - '+.ctrip.my'
  - '+.ctrip.sg'
  - '+.ctripbiz.com'
  - '+.ctripbuy.hk'
  - '+.ctripteam.com'
  - '+.doticloud.com'
  - '+.easytrip.com'
  - '+.hhtravel.com'
  - '+.hhtravel.com.tw'
  - '+.izuchebao.com'
  - '+.lvtds.com'
  - '+.qunar.com'
  - '+.qunarzz.com'
  - '+.shuntu.cn'
  - '+.skysea.com'
  - '+.suanya.cn'
  - '+.suanya.com'
  - '+.tieyou.com'
  - '+.toptown.cn'
  - '+.toursbms.com'
  - '+.trip.com'
  - '+.tripcdn.com'
  - '+.vipdlt.com'

# 同程/艺龙
  - '+.17u.cn'
  - '+.17u.net'
  - '+.17usoft.com'
  - '+.17usoft.net'
  - '+.40017.cn'
  - '+.elong.com'
  - '+.elongstatic.com'
  - '+.ly.com'

# 飞猪
  - '+.alitrip.com'
  - '+.asczwa.com'
  - '+.asczxcefsv.com'
  - '+.bcvbw.com'
  - '+.dfkhgj.com'
  - '+.edcdfg.com'
  - '+.ereuiib.com'
  - '+.fdfgdf.cn'
  - '+.feizhu.cn'
  - '+.feizhu.com'
  - '+.fliggy.com'
  - '+.fliggy.hk'
  - '+.iuynfg.com'
  - '+.jhgtgb.com'
  - '+.mnbvbqw.com'
  - '+.ujmjk.com'
  - '+.vfvdf.com'
  - '+.xcvvs.com'
  - '+.zxczw.com'
  - '+.zzxca.com'

# 途牛
  - '+.tuniu.com'
  - '+.tuniucdn.com'

# 12306
  - '+.12306.cn'
  - '+.95306.cn'
  - '+.rails.cn'