payload:
# BrightCove
  - '+.bcove.video'
  - '+.bcovlive-a.akamaihd.net'
  - '+.bcovlive.io'
  - '+.bcsecure01-a.akamaihd.net'
  - '+.bcvp0rtal.com'
  - '+.boltdns.net'
  - '+.brightcove.com'
  - '+.brightcove.imgix.net'
  - '+.brightcove.net'
  - '+.brightcove.services'
  - '+.brightcovecdn.com'
  - '+.videojs.com'
  - '+.zencdn.net'
  - '+.zencoder.com'

# Buypass
  - '+.buypass-ssl.com'
  - '+.buypass.com'
  - '+.buypass.no'
  - '+.buypass.se'
  - '+.minid.no'

# DigiCert
  - '+.digicert.cn'
  - '+.digicert.com'
  - '+.digitalcertvalidation.com'
  - '+.freessl.com'
  - '+.geotrust.com'
  - '+.rapidssl.com'
  - '+.thawte.com'
  - '+.thawte.de'
  - '+.thawte.fr'

# DtDNS
  - '+.3d-game.com'
  - '+.4irc.com'
  - '+.b0ne.com'
  - '+.chatnook.com'
  - '+.darktech.org'
  - '+.deaftone.com'
  - '+.dtdns.com'
  - '+.dtdns.net'
  - '+.effers.com'
  - '+.etowns.net'
  - '+.etowns.org'
  - '+.flnet.org'
  - '+.gotgeeks.com'
  - '+.scieron.com'
  - '+.slyip.com'
  - '+.slyip.net'
  - '+.suroot.com'

# DynDNS
  - '+.blogdns.org'
  - '+.dyn.com'
  - '+.dyndns-ip.com'
  - '+.dyndns-pics.com'
  - '+.dyndns.org'
  - '+.from-pr.com'
  - '+.from-sd.com'
  - '+.is-a-hunter.com'

# Dynu
  - '+.dynu.com'
  - '+.dynu.net'
  - '+.freeddns.org'

# GlobalSign
  - '+.globalsign-media.com'
  - '+.globalsign.be'
  - '+.globalsign.ch'
  - '+.globalsign.co.uk'
  - '+.globalsign.com'
  - '+.globalsign.com.au'
  - '+.globalsign.com.hk'
  - '+.globalsign.com.sg'
  - '+.globalsign.es'
  - '+.globalsign.eu'
  - '+.globalsign.fr'
  - '+.globalsign.net'
  - '+.globalsign.nl'

# Cloudflare
  - '+.cloudflare-dns.com'
  - '+.cloudflare-ipfs.com'
  - '+.cloudflare-quic.com'
  - '+.cloudflare.com'
  - '+.cloudflare.net'
  - '+.cloudflareaccess.com'
  - '+.cloudflareapps.com'
  - '+.cloudflarebolt.com'
  - '+.cloudflareclient.com'
  - '+.cloudflareinsights.com'
  - '+.cloudflareok.com'
  - '+.cloudflareresolve.com'
  - '+.cloudflaressl.com'
  - '+.cloudflarestatus.com'
  - '+.cloudflarestream.com'
  - '+.cloudflaretest.com'
  - '+.cloudflarewarp.com'
  - '+.one.one.one'
  - '+.pages.dev'
  - '+.trycloudflare.com'
  - '+.videodelivery.net'
  - '+.warp.plus'
  - '+.workers.dev'

# DigitalOcean
  - '+.digitalocean.com'
  - '+.digitaloceanspaces.com'
  - '+.do.co'
  - '+.nginxconfig.io'

# Identrust
  - '+.identrust.co.uk'
  - '+.identrust.com'
  - '+.identrust.net'

# Verisign
  - '+.verisign.asia'
  - '+.verisign.biz'
  - '+.verisign.ch'
  - '+.verisign.co.in'
  - '+.verisign.co.uk'
  - '+.verisign.com'
  - '+.verisign.com.au'
  - '+.verisign.com.br'
  - '+.verisign.com.cn'
  - '+.verisign.com.es'
  - '+.verisign.com.hk'
  - '+.verisign.com.sg'
  - '+.verisign.com.tw'
  - '+.verisign.com.vn'
  - '+.verisign.de'
  - '+.verisign.dk'
  - '+.verisign.es'
  - '+.verisign.fr'
  - '+.verisign.hk'
  - '+.verisign.in'
  - '+.verisign.info'
  - '+.verisign.jobs'
  - '+.verisign.mobi'
  - '+.verisign.name'
  - '+.verisign.net'
  - '+.verisign.org'
  - '+.verisign.pro'
  - '+.verisign.se'
  - '+.verisign.sg'
  - '+.verisign.tw'
  - '+.verisign.us'
  - '+.verisign.vn'
  - '+.verisigninc.com'

# Limelight
  - '+.delvenetworks.com'
  - '+.limelight.com'
  - '+.lldns.net'
  - '+.llnw-trials.com'
  - '+.llnw.com'
  - '+.llnw.net'
  - '+.llnwd.net'
  - '+.llnwi.net'

# Jsdelivr
  - '+.esm.run'
  - '+.jsdelivr.com'
  - '+.jsdelivr.net'

# Akamai
  - '+.akamai.com'
  - '+.akamai.net'
  - '+.akamaiedge.net'
  - '+.akamaihd.net'
  - '+.akamaistream.net'
  - '+.akamaized.net'

# Amazon 
  - '+.cloudfront.net'
  - '+.amazontrust.com'

# Bootstrap CDN
  - '+.bootstrapcdn.com'

# Iframe CDN
  - '+.cdn.iframe.ly'
  - '+.iframe.ly'

# Polyfill CDN
  - '+.cdn.polyfill.io'
  - '+.polyfill.io'

# Let's Encrypt
  - '+.lencr.org'
