payload:
# Whatsapp
  - '108.168.174.0/16'
  - '158.85.224.160/27'
  - '158.85.46.128/27'
  - '158.85.5.192/27'
  - '173.192.222.160/27'
  - '173.192.231.32/27'
  - '174.37.243.0/16'
  - '18.194.0.0/15'
  - '184.173.128.0/17'
  - '208.43.122.128/27'
  - '34.224.0.0/12'
  - '50.22.198.204/30'
  - '54.242.0.0/15'
  - '69.171.235.0/16'
  - '75.126.150.0/16'

# Facebook
  - '103.4.96.0/22'
  - '108.168.176.192/26'
  - '108.168.177.0/27'
  - '108.168.180.96/27'
  - '108.168.254.65/32'
  - '108.168.255.224/32'
  - '108.168.255.227/32'
  - '108.177.8.0/21'
  - '119.235.224.0/24'
  - '119.235.232.0/24'
  - '129.134.0.0/17'
  - '157.240.0.0/17'
  - '169.45.248.118/32'
  - '173.252.64.0/18'
  - '179.60.192.0/22'
  - '185.60.216.0/22'
  - '204.15.20.0/22'
  - '3.123.36.126/32'
  - '31.13.24.0/21'
  - '31.13.64.0/18'
  - '35.157.215.84/32'
  - '35.157.217.255/32'
  - '45.64.40.0/22'
  - '52.58.209.134/32'
  - '54.162.243.80/32'
  - '54.173.34.141/32'
  - '54.235.23.242/32'
  - '54.93.124.31/32'
  - '66.220.144.0/20'
  - '69.171.224.0/19'
  - '69.63.176.0/20'
  - '74.119.76.0/22'

# Twitter
  - '104.244.42.0/21'
  - '192.133.76.0/22'
  - '199.16.156.0/22'
  - '199.59.148.0/22'
  - '199.96.56.0/21'
  - '202.160.128.0/22'
  - '209.237.192.0/19'
  - '69.195.160.0/19'

# Line
  - '103.2.28.0/22'
  - '119.235.224.0/21'
  - '119.235.232.0/23'
  - '119.235.235.0/24'
  - '119.235.236.0/23'
  - '125.209.208.0/20'
  - '125.6.146.0/24'
  - '125.6.149.0/24'
  - '125.6.190.0/24'
  - '147.92.128.0/17'
  - '203.104.103.0/24'
  - '203.104.128.0/19'
  - '203.174.66.64/26'
  - '203.174.77.0/24'

# KakaoTalk
  - '1.201.0.0/24'
  - '103.246.56.0/22'
  - '103.27.148.0/22'
  - '110.76.140.0/22'
  - '113.61.104.0/22'
  - '27.0.236.0/22'

# Clubhouse
  - '103.59.49.10/32'
  - '103.65.41.130/32'
  - '103.65.41.132/32'
  - '103.65.41.137/32'
  - '103.65.41.139/32'
  - '103.65.41.152/32'
  - '103.65.41.157/32'
  - '103.65.41.159/32'
  - '103.65.41.166/32'
  - '103.65.41.169/32'
  - '103.98.18.181/32'
  - '103.98.18.183/32'
  - '103.98.18.184/32'
  - '103.98.18.189/32'
  - '107.155.5.0/24'
  - '120.227.115.126/32'
  - '122.10.255.165/32'
  - '128.1.193.0/24'
  - '128.1.105.156/32'
  - '128.1.87.196/32'
  - '128.14.208.0/24'
  - '129.227.115.130/32'
  - '129.227.156.17/32'
  - '129.227.156.20/32'
  - '129.227.234.110/32'
  - '129.227.234.112/32'
  - '129.227.234.119/32'
  - '129.227.234.124/32'
  - '129.227.234.67/32'
  - '129.227.234.70/32'
  - '129.227.234.82/31'
  - '129.227.234.85/32'
  - '129.227.234.0/24'
  - '129.227.57.130/32'
  - '129.227.57.132/30'
  - '129.227.57.136/30'
  - '129.227.57.143/32'
  - '129.227.57.0/24'
  - '129.227.57.144/30'
  - '129.227.71.130/31'
  - '129.227.71.132/31'
  - '129.227.71.134/32'
  - '129.227.71.140/30'
  - '129.227.71.144/32'
  - '129.227.71.203/32'
  - '129.227.71.0/24'
  - '13.230.60.35/32'
  - '148.153.126.146/31'
  - '148.153.172.73/32'
  - '148.153.172.74/31'
  - '148.153.172.76/31'
  - '164.52.0.244/32'
  - '164.52.102.33/32'
  - '164.52.102.35/32'
  - '164.52.102.66/31'
  - '164.52.102.68/31'
  - '164.52.102.70/32'
  - '164.52.102.75/32'
  - '164.52.102.76/31'
  - '164.52.102.91/32'
  - '164.52.124.102/32'
  - '164.52.32.57/32'
  - '164.52.32.59/32'
  - '164.52.32.60/32'
  - '164.52.36.228/32'
  - '164.52.36.232/32'
  - '164.52.36.238/32'
  - '164.52.36.243/32'
  - '164.52.36.245/32'
  - '164.52.36.254/32'
  - '164.52.6.19/32'
  - '164.52.6.21/32'
  - '164.52.6.23/32'
  - '164.52.6.24/31'
  - '199.190.44.36/31'
  - '202.181.136.106/31'
  - '202.181.136.108/32'
  - '202.181.136.234/32'
  - '202.226.25.162/32'
  - '202.226.25.166/32'
  - '202.226.25.171/32'
  - '202.226.25.195/32'
  - '202.226.25.198/32'
  - '23.248.191.103/32'
  - '23.248.191.105/32'
  - '23.98.43.152/32'
  - '3.0.163.78/32'
  - '35.156.231.150/32'
  - '35.168.106.53/32'
  - '35.178.208.187/32'
  - '45.255.124.100/31'
  - '45.255.124.104/31'
  - '45.255.124.107/32'
  - '45.255.124.108/31'
  - '45.255.124.135/32'
  - '45.255.124.98/32'
  - '45.40.48.11/32'
  - '45.40.48.114/32'
  - '50.17.126.121/32'
  - '50.18.128.22/32'
  - '52.178.26.110/32'
  - '52.194.158.59/32'
  - '52.221.46.208/32'
  - '52.52.84.170/32'
  - '52.58.56.244/32'
  - '54.178.26.110/32'
  - '69.28.51.148/32'